{
	"Server": "192.168.0.2",
	"Topic": "crewchief",
	"Login": "grantMQTT",
	"Password": "",
	"Port": 1883,
	"UpdateRateLimit": 0,
	"SubscribeTopic": "/crewchief",
	"Channels": [				
		{
			"CrewChiefField": "Conditions.CurrentConditions.AmbientTemperature",
			"TelemetryField": "Conditions_Temperature_Ambient"
		},
		{
			"CrewChiefField": "Conditions.CurrentConditions.TrackTemperature",
			"TelemetryField": "Conditions_Temperature_Track"
		},	
		{
			"CrewChiefField": "Conditions.CurrentConditions.RainDensity",
			"TelemetryField": "Conditions_RainDensity"
		},		
		{
			"CrewChiefField": "ControlData.ClutchPedal",
			"TelemetryField": "Clutch"
		},
		{
			"CrewChiefField": "ControlData.BrakePedal",
			"TelemetryField": "Brake"
		},
		{
			"CrewChiefField": "ControlData.ThrottlePedal",
			"TelemetryField": "Throttle"
		},
		{
			"CrewChiefField": "ControlData.HandBrake",
			"TelemetryField": "Handbrake"
		},
		{
			"CrewChiefField": "ControlData.SteeringWheelAngle",
			"TelemetryField": "SteeringAngle"
		},
		{
			"CrewChiefField": "EngineData.EngineRpm",
			"TelemetryField": "Rpms"
		},
		{
			"CrewChiefField": "TransmissionData.Gear",
			"TelemetryField": "Gear"
		},
		{
			"CrewChiefField": "EngineData",
			"TelemetryField": "EngineData"
		},			
		{
			"CrewChiefField": "FuelData",
			"TelemetryField": "FuelData"
		}
		,		
		{
			"CrewChiefField": "CarDamageData",
			"TelemetryField": "CarDamageData"
		},
		{
			"CrewChiefField": "PositionAndMotionData.CarSpeed",
			"TelemetryField": "SpeedMs"
		},
		{
			"CrewChiefField": "PositionAndMotionData.Orientation",
			"TelemetryField": "Position_Orientation"
		},
		{
			"CrewChiefField": "PositionAndMotionData.AccelerationVector",
			"TelemetryField": "Position_AccelerationVector"
		},		
		{
			"CrewChiefField": "PositionAndMotionData.DistanceRoundTrack",
			"TelemetryField": "DistanceRoundTrack"
		},
		{
			"CrewChiefField": "PositionAndMotionData.WorldPosition[0]",
			"TelemetryField": "WorldPosition_x"
		},
		{
			"CrewChiefField": "PositionAndMotionData.WorldPosition[1]",
			"TelemetryField": "WorldPosition_y"
		},
		{
			"CrewChiefField": "PositionAndMotionData.WorldPosition[2]",
			"TelemetryField": "WorldPosition_z"
		},
		{
			"CrewChiefField": "PitData.limiterStatus",
			"TelemetryField": "PitData_limiterStatus"
		},
		{
			"CrewChiefField": "PitData.PitSpeedLimit",
			"TelemetryField": "PitData_PitSpeedLimit"
		},
		{
			"CrewChiefField": "SessionData.DriverRawName",
			"TelemetryField": "Driver"
		},
		{
			"CrewChiefField": "SessionData.TrackDefinition.trackLength",
			"TelemetryField": "Track_Length"
		},
		{
			"CrewChiefField": "SessionData.PlayerCarNr",
			"TelemetryField": "Session_CarNumber"
		},
		{
			"CrewChiefField": "SessionData.SessionType",
			"TelemetryField": "Session_Type"
		},
		{
			"CrewChiefField": "SessionData.SessionPhase",
			"TelemetryField": "Session_Phase"
		},
		{
			"CrewChiefField": "SessionData.Flag",
			"TelemetryField": "Session_Flag"
		},				
		{
			"CrewChiefField": "SessionData.SectorNumber",
			"TelemetryField": "Session_Sector"
		},
		{
			"CrewChiefField": "SessionData.LapCount",
			"TelemetryField": "CurrentLap"
		},
	    {
			"CrewChiefField": "SessionData.TimeDeltaFront",
			"TelemetryField": "Session_Delta_Front"
		},
		{
			"CrewChiefField": "SessionData.TimeDeltaBehind",
			"TelemetryField": "Session_Delta_Behind"
		},
		{
			"CrewChiefField": "SessionData.LapTimeCurrent",
			"TelemetryField": "CurrentLapTime"
		},
		{
			"CrewChiefField": "SessionData.LapTimePrevious",
			"TelemetryField": "LapTimePrevious"
		},
		{
			"CrewChiefField": "SessionData.CurrentLapIsValid",
			"TelemetryField": "CurrentLapIsValid"
		},
		{
			"CrewChiefField": "SessionData.PreviousLapWasValid",
			"TelemetryField": "PreviousLapWasValid"
		},
		{
			"CrewChiefField": "SessionData.ClassPosition",
			"TelemetryField": "Session_Position_Class"
		},
		{
			"CrewChiefField": "SessionData.OverallPosition",
			"TelemetryField": "Session_Position_Overall"
		},
		{
			"CrewChiefField": "SessionData.NumCarsOverall",
			"TelemetryField": "Session_NumCars_Overall"
		},
		{
			"CrewChiefField": "SessionData.NumCarsInPlayerClass",
			"TelemetryField": "Session_NumCars_InPlayerClass"
		},
		{
			"CrewChiefField": "SessionData.SessionTimeRemaining",
			"TelemetryField": "Session_Remaining_Time"
		},	
		{
			"CrewChiefField": "SessionData.SessionLapsRemaining",
			"TelemetryField": "Session_Remaining_Laps"
		},		
		{
			"CrewChiefField": "SessionData.iRating",
			"TelemetryField": "Session_iRating"
		},		
		{
			"CrewChiefField": "SessionData.StrengthOfField",
			"TelemetryField": "Session_StrengthOfField"
		},
		{
			"CrewChiefField": "TyreData.FrontLeft_CenterTemp",
			"TelemetryField": "TyreData_Front_Left_CenterTemp"
		},
		{
			"CrewChiefField": "TyreData.LeftFrontBrakeTemp",
			"TelemetryField": "TyreData_Front_Left_BrakeTemp"
		},
		{
			"CrewChiefField": "TyreData.FrontLeftPressure",
			"TelemetryField": "TyreData_Front_Left_Pressure"
		},
		{
			"CrewChiefField": "TyreData.FrontLeftPercentWear",
			"TelemetryField": "TyreData_Front_Left_PercentWear"
		},
		{
			"CrewChiefField": "TyreData.FrontRight_CenterTemp",
			"TelemetryField": "TyreData_Front_Right_CenterTemp"
		},	
		{
			"CrewChiefField": "TyreData.RightFrontBrakeTemp",
			"TelemetryField": "TyreData_Front_Right_BrakeTemp"
		},
		{
			"CrewChiefField": "TyreData.FrontRightPercentWear",
			"TelemetryField": "TyreData_Front_Right_PercentWear"
		},
		{
			"CrewChiefField": "TyreData.FrontRightPressure",
			"TelemetryField": "TyreData_Front_Right_Pressure"
		},
		{
			"CrewChiefField": "TyreData.RearLeft_CenterTemp",
			"TelemetryField": "TyreData_Rear_Left_CenterTemp"
		},
		{
			"CrewChiefField": "TyreData.LeftRearBrakeTemp",
			"TelemetryField": "TyreData_Rear_Left_BrakeTemp"
		},
		{
			"CrewChiefField": "TyreData.RearLeftPercentWear",
			"TelemetryField": "TyreData_Rear_Left_PercentWear"
		},
		{
			"CrewChiefField": "TyreData.RearLeftPressure",
			"TelemetryField": "TyreData_Rear_Left_Pressure"
		},
		{
			"CrewChiefField": "TyreData.RearRight_CenterTemp",
			"TelemetryField": "TyreData_Rear_Right_CenterTemp"
		},
		{
			"CrewChiefField": "TyreData.RightRearBrakeTemp",
			"TelemetryField": "TyreData_Rear_Right_BrakeTemp"
		},		
		{
			"CrewChiefField": "TyreData.RearRightPercentWear",
			"TelemetryField": "TyreData_Rear_Right_PercentWear"
		},		
		{
			"CrewChiefField": "TyreData.RearRightPressure",
			"TelemetryField": "TyreData_Rear_Right_Pressure"
		},	
		{
			"CrewChiefField": "PenaltiesData.CutTrackWarnings",
			"TelemetryField": "Penalties_CutTrackWarnings"
		},
		{
			"CrewChiefField": "PenaltiesData.Warning",
			"TelemetryField": "Penalties_Warnings"
		},		
		{
			"CrewChiefField": "PenaltiesData.NumOutstandingPenalties",
			"TelemetryField": "Penalties_Total"
		},		
		{
			"CrewChiefField": "SessionData.CurrentDriverIncidentCount",
			"TelemetryField": "Penalties_Incidents"
		}
	]
}